…
arm_df <- as_tibble(
  map_dfr(.x = files, import_file, .id = "file_name") %>% 
  separate(file_name, into = c("remove_1", "remove_2", "temp_1"), sep = "/") %>%
  mutate(arm_id = str_replace(temp_1, ".csv", ""),
         week = factor(str_replace(week, "week_", ""))) %>% 
  separate(arm_id, into = c("arm", "subject_id"), sep = "_", remove = FALSE) %>% 
  select(c("arm_id", "arm", "subject_id", "week",  "value")) %>% 
  mutate(subject_id = as.integer(subject_id),
         arm_id = factor(arm_id),
         arm = factor(arm))  
)       
arm_df
```

    ## # A tibble: 160 x 5
    ##    arm_id arm   subject_id week  value
    ##    <fct>  <fct>      <int> <fct> <dbl>
    ##  1 con_01 con            1 1      0.2 
    ##  2 con_01 con            1 2     -1.31
    ##  3 con_01 con            1 3      0.66
    ##  4 con_01 con            1 4      1.96
    ##  5 con_01 con            1 5      0.23
    ##  6 con_01 con            1 6      1.09
    ##  7 con_01 con            1 7      0.05
    ##  8 con_01 con            1 8      1.94
    ##  9 con_02 con            2 1      1.13
    ## 10 con_02 con            2 2     -0.88
    ## # ... with 150 more rows
…
